{
  "Cancer": "cancer",
  "Alternative Medicine": "alternative_medicine",
  "Dental": "dental",
  "Diet & Fitness": "diet_fitness",
  "Allergies": "allergies",
  "Diabetes": "diabetes",
  "Heart Diseases": "heart_diseases",
  "Infectious Diseases": "infectious_diseases",
  "Other - Diseases": "other_diseases",
  "Respiratory Diseases": "respiratory_diseases",
  "STDs": "stds",
  "Skin Conditions": "skin_conditions",
  "First Aid": "first_aid",
  "Injuries": "injuries",
  "Other - General Health Care": "other_general_health_care",
  "Pain & Pain Management": "pain",
  "Men's Health": "men_health",
  "Mental Health": "mental_health",
  "Women's Health": "women_health",
  "Other - Health": "other_health",
  "Optical": "optical"
}